Download and Tidy Time Series Data from the Australian Bureau of Statistics • readabs
…
For example, let’s say you wanted to download table 4 from Weekly Payroll Jobs and Wages in Australia. This code would do the trick:

payrolls_t4_path <- download_abs_data_cube("weekly-payroll-jobs-and-wages-australia", "004")
#> File downloaded in /var/folders/4v/f518hjbj00b64c7j75n4k_jc0000gq/T//RtmpnCJ2he/6160055001_DO004.xlsx

payrolls_t4_path
#> [1] "/var/folders/4v/f518hjbj00b64c7j75n4k_jc0000gq/T//RtmpnCJ2he/6160055001_DO004.xlsx"

The download_abs_data_cube() function downloads the file and returns the full file path to the saved file. You can then pipe that in to another function:

payrolls_t4_path %>%
  read_excel(sheet = "Payroll jobs index",
                     skip = 5)
#> # A tibble: 4,322 × 137
#>    State…¹ Indus…² Sex   Age g…³ `43834` `43841` `43848` `43855` `43862` `43869`
#>    <chr>   <chr>   <chr> <chr>   <chr>   <chr>   <chr>   <chr>   <chr>   <chr>  
#>  1 0. Aus… 0. All… 0. P… 0. All… 92.74   95.17   96.71   97.53   98.05   98.66  
#>  2 0. Aus… 0. All… 0. P… 1. 15-… 92.38   95.02   97.22   98.99   98.54   100.06 
#>  3 0. Aus… 0. All… 0. P… 2. 20-… 92.47   95.28   97.27   98.06   98.17   98.62  
#>  4 0. Aus… 0. All… 0. P… 3. 30-… 93.28   95.64   97.02   97.68   98.16   98.62  
#>  5 0. Aus… 0. All… 0. P… 4. 40-… 93.05   95.26   96.58   97.36   98      98.64  
#>  6 0. Aus… 0. All… 0. P… 5. 50-… 92.99   95.29   96.65   97.41   98.12   98.7   
#>  7 0. Aus… 0. All… 0. P… 6. 60-… 91.32   93.54   94.82   95.67   97.27   98     
#>  8 0. Aus… 0. All… 0. P… 7. 70 … 87.68   90.03   91.29   92.62   95.63   96.82  
#>  9 0. Aus… 0. All… 1. M… 0. All… 92.61   95.63   97.38   98.1    98.41   98.83  
#> 10 0. Aus… 0. All… 1. M… 1. 15-… 91.42   94.92   97.16   98.92   98.35   99.92  
#> # … with 4,312 more rows, 127 more variables: `43876` <chr>, `43883` <chr>,
#> #   `43890` <chr>, `43897` <chr>, `43904` <chr>, `43911` <chr>, `43918` <chr>,
#> #   `43925` <chr>, `43932` <chr>, `43939` <chr>, `43946` <chr>, `43953` <chr>,
#> #   `43960` <chr>, `43967` <chr>, `43974` <chr>, `43981` <chr>, `43988` <chr>,
#> #   `43995` <chr>, `44002` <chr>, `44009` <chr>, `44016` <chr>, `44023` <chr>,
#> #   `44030` <chr>, `44037` <chr>, `44044` <chr>, `44051` <chr>, `44058` <chr>,
#> #   `44065` <chr>, `44072` <chr>, `44079` <chr>, `44086` <chr>, …
#> # ℹ Use `print(n = ...)` to see more rows, and `colnames()` to see all variable names

Using convenience functions for select data cubes

As it happens, if you want the ABS Weekly Payrolls data, you don’t need to use download_abs_data_cube() directly. Instead, there is a convenience function available that downloads, imports, and tidies the data for you:

read_payrolls()
#> File downloaded in /var/folders/4v/f518hjbj00b64c7j75n4k_jc0000gq/T//RtmpnCJ2he/6160055001_DO004.xlsx
#> # A tibble: 114,646 × 7
#>    state     industry       sex     age      date       value series
#>    <chr>     <chr>          <chr>   <chr>    <date>     <dbl> <chr> 
#>  1 Australia All industries Persons All ages 2020-01-04  92.7 jobs  
#>  2 Australia All industries Persons All ages 2020-01-11  95.2 jobs  
#>  3 Australia All industries Persons All ages 2020-01-18  96.7 jobs  
#>  4 Australia All industries Persons All ages 2020-01-25  97.5 jobs  
#>  5 Australia All industries Persons All ages 2020-02-01  98.0 jobs  
#>  6 Australia All industries Persons All ages 2020-02-08  98.7 jobs  
#>  7 Australia All industries Persons All ages 2020-02-15  99.1 jobs  
#>  8 Australia All industries Persons All ages 2020-02-22  99.5 jobs  
#>  9 Australia All industries Persons All ages 2020-02-29  99.5 jobs  
#> 10 Australia All industries Persons All ages 2020-03-07  99.9 jobs  
#> # … with 114,636 more rows
#> # ℹ Use `print(n = ...)` to see more rows

There is also a convenience function available for data cube GM1 from the monthly Labour Force data, which contains labour force gross flows:

read_lfs_grossflows()
#> File downloaded in /var/folders/4v/f518hjbj00b64c7j75n4k_jc0000gq/T//RtmpnCJ2he/GM1.xlsx
#> # A tibble: 1,033,258 × 9
#>    date       sex   age         state      lfs_c…¹ lfs_p…² persons unit  weights
#>    <date>     <chr> <chr>       <chr>      <chr>   <chr>     <dbl> <chr> <chr>  
#>  1 2002-07-01 Males 15-19 years New South… Employ… Employ…  32.8   000s  curren…
#>  2 2002-07-01 Males 15-19 years New South… Employ… Employ…   2.97  000s  curren…
#>  3 2002-07-01 Males 15-19 years New South… Employ… Unempl…   0.644 000s  curren…
#>  4 2002-07-01 Males 15-19 years New South… Employ… Not in…   0.330 000s  curren…
#>  5 2002-07-01 Males 15-19 years New South… Employ… Unmatc…   2.26  000s  curren…
#>  6 2002-07-01 Males 15-19 years New South… Employ… Incomi…   4.82  000s  curren…
#>  7 2002-07-01 Males 15-19 years New South… Employ… Employ…   3.21  000s  curren…
#>  8 2002-07-01 Males 15-19 years New South… Employ… Employ…  37.3   000s  curren…
#>  9 2002-07-01 Males 15-19 years New South… Employ… Unempl…   2.61  000s  curren…
#> 10 2002-07-01 Males 15-19 years New South… Employ… Not in…   4.25  000s  curren…
#> # … with 1,033,248 more rows, and abbreviated variable names ¹​lfs_current,
#> #   ²​lfs_previous
#> # ℹ Use `print(n = ...)` to see more rows
…
