…
payrolls_t4_path
#> [1] "/var/folders/4v/f518hjbj00b64c7j75n4k_jc0000gq/T//RtmpPpukIE/6160055001_DO004.xlsx"
```

The `download_abs_data_cube()` function downloads the file and returns
the full file path to the saved file. You can then pipe that in to
another function:

``` r
payrolls_t4_path %>%
  readxl::read_excel(
    sheet = "Payroll jobs index",
    skip = 5
  )
#> # A tibble: 4,322 × 154
#>    State…¹ Indus…² Sex   Age g…³ `43834` `43841` `43848` `43855` `43862` `43869`
#>    <chr>   <chr>   <chr> <chr>   <chr>   <chr>   <chr>   <chr>   <chr>   <chr>  
#>  1 0. Aus… 0. All… 0. P… 0. All… 92.77   95.19   96.73   97.56   98.09   98.7   
#>  2 0. Aus… 0. All… 0. P… 1. 15-… 92.34   94.99   97.17   98.95   98.53   100.06 
#>  3 0. Aus… 0. All… 0. P… 2. 20-… 92.49   95.29   97.27   98.07   98.2    98.65  
#>  4 0. Aus… 0. All… 0. P… 3. 30-… 93.32   95.67   97.04   97.71   98.2    98.67  
#>  5 0. Aus… 0. All… 0. P… 4. 40-… 93.09   95.3    96.62   97.4    98.05   98.7   
#>  6 0. Aus… 0. All… 0. P… 5. 50-… 93.03   95.33   96.69   97.45   98.17   98.76  
#>  7 0. Aus… 0. All… 0. P… 6. 60-… 91.36   93.58   94.86   95.72   97.31   98.05  
#>  8 0. Aus… 0. All… 0. P… 7. 70 … 87.75   90.1    91.34   92.67   95.68   96.88  
#>  9 0. Aus… 0. All… 1. M… 0. All… 92.64   95.65   97.39   98.12   98.44   98.87  
#> 10 0. Aus… 0. All… 1. M… 1. 15-… 91.43   94.94   97.17   98.93   98.37   99.94  
#> # … with 4,312 more rows, 144 more variables: `43876` <chr>, `43883` <chr>,
#> #   `43890` <chr>, `43897` <chr>, `43904` <chr>, `43911` <chr>, `43918` <chr>,
#> #   `43925` <chr>, `43932` <chr>, `43939` <chr>, `43946` <chr>, `43953` <chr>,
#> #   `43960` <chr>, `43967` <chr>, `43974` <chr>, `43981` <chr>, `43988` <chr>,
#> #   `43995` <chr>, `44002` <chr>, `44009` <chr>, `44016` <chr>, `44023` <chr>,
#> #   `44030` <chr>, `44037` <chr>, `44044` <chr>, `44051` <chr>, `44058` <chr>,
#> #   `44065` <chr>, `44072` <chr>, `44079` <chr>, `44086` <chr>, …
```

#### Convenience functions for data cubes

As it happens, if you want the ABS Weekly Payrolls data, you don’t need
to use `download_abs_data_cube()` directly. Instead, there is a
convenience function available that downloads, imports, and tidies the
data for you:

``` r
read_payrolls()
#> File downloaded in /var/folders/4v/f518hjbj00b64c7j75n4k_jc0000gq/T//RtmpPpukIE/6160055001_DO004.xlsx
#> # A tibble: 129,300 × 7
#>    state     industry       sex     age      date       value series
#>    <chr>     <chr>          <chr>   <chr>    <date>     <dbl> <chr> 
#>  1 Australia All industries Persons All ages 2020-01-04  92.8 jobs  
#>  2 Australia All industries Persons All ages 2020-01-11  95.2 jobs  
#>  3 Australia All industries Persons All ages 2020-01-18  96.7 jobs  
#>  4 Australia All industries Persons All ages 2020-01-25  97.6 jobs  
#>  5 Australia All industries Persons All ages 2020-02-01  98.1 jobs  
#>  6 Australia All industries Persons All ages 2020-02-08  98.7 jobs  
#>  7 Australia All industries Persons All ages 2020-02-15  99.2 jobs  
#>  8 Australia All industries Persons All ages 2020-02-22  99.5 jobs  
#>  9 Australia All industries Persons All ages 2020-02-29  99.5 jobs  
#> 10 Australia All industries Persons All ages 2020-03-07  99.9 jobs  
#> # … with 129,290 more rows
```

There is also a convenience function available for data cube GM1 from
the monthly Labour Force data, which contains labour force gross flows:

``` r
read_lfs_grossflows()
#> File downloaded in /var/folders/4v/f518hjbj00b64c7j75n4k_jc0000gq/T//RtmpPpukIE/GM1.xlsx
#> # A tibble: 1,032,009 × 9
#>    date       sex   age         state      lfs_c…¹ lfs_p…² persons unit  weights
#>    <date>     <chr> <chr>       <chr>      <chr>   <chr>     <dbl> <chr> <chr>  
#>  1 2003-01-01 Males 15-19 years New South… Employ… Employ…  34.4   000s  curren…
#>  2 2003-01-01 Males 15-19 years New South… Employ… Employ…   4.36  000s  curren…
#>  3 2003-01-01 Males 15-19 years New South… Employ… Unempl…   0.298 000s  curren…
#>  4 2003-01-01 Males 15-19 years New South… Employ… Not in…   3.37  000s  curren…
#>  5 2003-01-01 Males 15-19 years New South… Employ… Unmatc…   3.36  000s  curren…
#>  6 2003-01-01 Males 15-19 years New South… Employ… Incomi…   3.52  000s  curren…
#>  7 2003-01-01 Males 15-19 years New South… Employ… Employ…   3.68  000s  curren…
#>  8 2003-01-01 Males 15-19 years New South… Employ… Employ…  37.5   000s  curren…
#>  9 2003-01-01 Males 15-19 years New South… Employ… Unempl…   3.20  000s  curren…
#> 10 2003-01-01 Males 15-19 years New South… Employ… Not in…   4.76  000s  curren…
#> # … with 1,031,999 more rows, and abbreviated variable names ¹​lfs_current,
#> #   ²​lfs_previous
```
…
``` r
flows <- read_api_dataflows()
```

Say from this I am interested in the first dataflow, the projected
population of Aboriginal and Torres Strait Islander Australians. The id
for this dataflow is `"ABORIGINAL_POP_PROJ"`, which I can use to
download the data.

In this case, I could download the entire dataflow with:

``` r
read_api("ABORIGINAL_POP_PROJ")
#> # A tibble: 72,144 × 11
#>    measure             sex_abs age       asgs_…¹ proj_…² frequ…³ time_…⁴ obs_v…⁵
#>    <chr+lbl>           <dbl+l> <chr+lbl> <dbl+l> <dbl+l> <chr+l>   <int>   <int>
#>  1 POP_PROJ [Projecte… 3 [Per… A04 [0 -… 1 [New… 3 [Ser… A [Ann…    2016   32068
#>  2 POP_PROJ [Projecte… 3 [Per… A04 [0 -… 1 [New… 3 [Ser… A [Ann…    2017   32056
#>  3 POP_PROJ [Projecte… 3 [Per… A04 [0 -… 1 [New… 3 [Ser… A [Ann…    2018   32180
#>  4 POP_PROJ [Projecte… 3 [Per… A04 [0 -… 1 [New… 3 [Ser… A [Ann…    2019   32617
#>  5 POP_PROJ [Projecte… 3 [Per… A04 [0 -… 1 [New… 3 [Ser… A [Ann…    2020   32992
#>  6 POP_PROJ [Projecte… 3 [Per… A04 [0 -… 1 [New… 3 [Ser… A [Ann…    2021   33341
#>  7 POP_PROJ [Projecte… 3 [Per… A04 [0 -… 1 [New… 3 [Ser… A [Ann…    2022   33933
#>  8 POP_PROJ [Projecte… 3 [Per… A04 [0 -… 1 [New… 3 [Ser… A [Ann…    2023   34496
#>  9 POP_PROJ [Projecte… 3 [Per… A04 [0 -… 1 [New… 3 [Ser… A [Ann…    2024   35027
#> 10 POP_PROJ [Projecte… 3 [Per… A04 [0 -… 1 [New… 3 [Ser… A [Ann…    2025   35523
#> # … with 72,134 more rows, 3 more variables: unit_measure <chr+lbl>,
#> #   obs_status <chr+lbl>, obs_comment <lgl>, and abbreviated variable names
#> #   ¹​asgs_2011, ²​proj_series, ³​frequency, ⁴​time_period, ⁵​obs_value
```

Let’s say I’m only interested in the population projections for males,
not females or all persons. In that case, I can filter the data on the
ABS server before downloading my query. I can use
`read_api_datastructure()` to help with this.

``` r
read_api_datastructure("ABORIGINAL_POP_PROJ")
#> # A tibble: 332 × 6
#>    role      var     position desc    code     label               
#>    <chr>     <chr>   <chr>    <chr>   <chr>    <chr>               
#>  1 dimension measure 1        Measure POP_PROJ Projected population
#>  2 dimension sex_abs 2        Sex     1        Males               
#>  3 dimension sex_abs 2        Sex     2        Females             
#>  4 dimension sex_abs 2        Sex     3        Persons             
#>  5 dimension age     3        Age     0        0                   
#>  6 dimension age     3        Age     0014     0 - 14              
#>  7 dimension age     3        Age     0015     0 - 15              
#>  8 dimension age     3        Age     0104     1 - 4               
#>  9 dimension age     3        Age     0514     5 - 14              
#> 10 dimension age     3        Age     1        1                   
#> # … with 322 more rows
```

From this, I can see that there’s a variable (`var`) called `sex_abs`,
which can take the value `1`, `2`, or `3`, corresponding to `Males`,
`Females` and `Persons`. If I only want to data for Males, I can obtain
this by supplying a datakey:

``` r
read_api("ABORIGINAL_POP_PROJ", datakey = list(sex_abs = 1))
#> # A tibble: 24,048 × 11
#>    measure             sex_abs age       asgs_…¹ proj_…² frequ…³ time_…⁴ obs_v…⁵
#>    <chr+lbl>           <dbl+l> <chr+lbl> <dbl+l> <dbl+l> <chr+l>   <int>   <int>
#>  1 POP_PROJ [Projecte… 1 [Mal… A04 [0 -… 1 [New… 7 [Ser… A [Ann…    2016   16675
#>  2 POP_PROJ [Projecte… 1 [Mal… A04 [0 -… 1 [New… 7 [Ser… A [Ann…    2017   16656
#>  3 POP_PROJ [Projecte… 1 [Mal… A04 [0 -… 1 [New… 7 [Ser… A [Ann…    2018   16661
#>  4 POP_PROJ [Projecte… 1 [Mal… A04 [0 -… 1 [New… 7 [Ser… A [Ann…    2019   16887
#>  5 POP_PROJ [Projecte… 1 [Mal… A04 [0 -… 1 [New… 7 [Ser… A [Ann…    2020   17183
#>  6 POP_PROJ [Projecte… 1 [Mal… A04 [0 -… 1 [New… 7 [Ser… A [Ann…    2021   17534
#>  7 POP_PROJ [Projecte… 1 [Mal… A04 [0 -… 1 [New… 7 [Ser… A [Ann…    2022   18023
#>  8 POP_PROJ [Projecte… 1 [Mal… A04 [0 -… 1 [New… 7 [Ser… A [Ann…    2023   18516
#>  9 POP_PROJ [Projecte… 1 [Mal… A04 [0 -… 1 [New… 7 [Ser… A [Ann…    2024   19001
#> 10 POP_PROJ [Projecte… 1 [Mal… A04 [0 -… 1 [New… 7 [Ser… A [Ann…    2025   19483
#> # … with 24,038 more rows, 3 more variables: unit_measure <chr+lbl>,
#> #   obs_status <chr+lbl>, obs_comment <lgl>, and abbreviated variable names
#> #   ¹​asgs_2011, ²​proj_series, ³​frequency, ⁴​time_period, ⁵​obs_value
```
…
