Using readabs • readabs
…
There’s a bunch of data in here. We can see that the series column contains a first part, like “Participation rate” or “Unemployment rate”, and a second part, which is “Persons”, “Males”, or “Females”. You will often want to filter using one or both of these components separately - and sometimes there will be more than two components.

The separate_series function helps you by separating the series column into multiple components and removing extraneous symbols.

lfs_1_sep <- lfs_1 %>%
  separate_series()
#> Warning in separate_series(.): value column(s) have NA values.

lfs_1_sep %>%
  group_by(series_1, series_2) %>% 
  summarise()
#> `summarise()` has grouped output by 'series_1'. You can override using the
#> `.groups` argument.
#> # A tibble: 42 × 2
#> # Groups:   series_1 [14]
#>    series_1                                   series_2
#>    <chr>                                      <chr>   
#>  1 Civilian population aged 15 years and over Females 
#>  2 Civilian population aged 15 years and over Males   
#>  3 Civilian population aged 15 years and over Persons 
#>  4 Employed full-time                         Females 
#>  5 Employed full-time                         Males   
#>  6 Employed full-time                         Persons 
#>  7 Employed part-time                         Females 
#>  8 Employed part-time                         Males   
#>  9 Employed part-time                         Persons 
#> 10 Employed total                             Females 
#> # … with 32 more rows
…
